<svg width="20" height="20" viewBox="0 0 20 20" xmlns="http://www.w3.org/2000/svg">
<path d="M0 8C0 3.58172 3.58172 0 8 0H12C16.4183 0 20 3.58172 20 8V12C20 16.4183 16.4183 20 12 20H8C3.58172 20 0 16.4183 0 12V8Z" fill="#47004E"/>
<path d="M0 8C0 3.58172 3.58172 0 8 0H12C16.4183 0 20 3.58172 20 8V12C20 16.4183 16.4183 20 12 20H8C3.58172 20 0 16.4183 0 12V8Z" fill="#47004E"/>
<path d="M15.1613 8.3871C16.0521 8.3871 16.7742 9.10922 16.7742 10V10C16.7742 10.8908 16.0521 11.6129 15.1613 11.6129L4.83871 11.6129C3.94793 11.6129 3.22581 10.8908 3.22581 10V10C3.22581 9.10922 3.94793 8.3871 4.83872 8.3871L15.1613 8.3871Z" fill="#8C5B90"/>
</svg>
