<svg width="31" height="31" viewBox="0 0 31 31" xmlns="http://www.w3.org/2000/svg">
<rect width="31" height="31" rx="8" />
<rect x="13" y="5" width="5" height="21" rx="2.5" fill="#8C5B90"/>
<rect x="26" y="13" width="5" height="21" rx="2.5" transform="rotate(90 26 13)" fill="#8C5B90"/>
</svg>
