<svg width="43" height="43" viewBox="0 0 43 43" fill="none" xmlns="http://www.w3.org/2000/svg">
<path d="M29.8612 2.38885L27.4722 0H15.5278L13.1389 2.38885H4.77783V7.16667H38.2222V2.38885H29.8612Z" fill="white"/>
<path fill-rule="evenodd" clip-rule="evenodd" d="M11.9445 43C9.30471 43 7.16669 40.862 7.16669 38.2222V9.55551H35.8334V38.2222C35.8334 40.862 33.6953 43 31.0557 43H11.9445ZM30 18.5C30 17.6716 29.3284 17 28.5 17C27.6716 17 27 17.6716 27 18.5V34.5C27 35.3284 27.6716 36 28.5 36C29.3284 36 30 35.3284 30 34.5V18.5ZM21.5 17C22.3284 17 23 17.6716 23 18.5V34.5C23 35.3284 22.3284 36 21.5 36C20.6716 36 20 35.3284 20 34.5V18.5C20 17.6716 20.6716 17 21.5 17ZM16 18.5C16 17.6716 15.3284 17 14.5 17C13.6716 17 13 17.6716 13 18.5V34.5C13 35.3284 13.6716 36 14.5 36C15.3284 36 16 35.3284 16 34.5V18.5Z" fill="white"/>
</svg>
