<svg xmlns="http://www.w3.org/2000/svg" width="24" height="24" viewBox="0 0 24 24" fill="none">
  <g clip-path="url(#clip0_1216_18537)">
    <path d="M16 3H4V16" stroke="#19323D" stroke-linecap="round" stroke-linejoin="round" />
    <path d="M8 7H20V19C20 20.1046 19.1046 21 18 21H10C8.89543 21 8 20.1046 8 19V7Z" stroke="#19323D"
      stroke-linecap="round" stroke-linejoin="round" />
  </g>
  <defs>
    <clipPath id="clip0_1216_18537">
      <rect width="24" height="24" fill="white" />
    </clipPath>
  </defs>
</svg>