<svg xmlns="http://www.w3.org/2000/svg" width="20" height="20" viewBox="0 0 20 20" fill="none">
  <g clip-path="url(#clip0_1213_17976)">
    <path
      d="M12.7 10C12.7 11.4202 11.4912 12.5714 10 12.5714C8.50883 12.5714 7.3 11.4202 7.3 10C7.3 8.57984 8.50883 7.42857 10 7.42857C11.4912 7.42857 12.7 8.57984 12.7 10Z"
      stroke="#737373" stroke-linecap="round" stroke-linejoin="round" />
    <path
      d="M1 10C2.44012 6.48798 5.80243 4 10 4C14.1976 4 17.5599 6.48798 19 10C17.5599 13.512 14.1976 16 10 16C5.80243 16 2.44012 13.512 1 10Z"
      stroke="#737373" stroke-linecap="round" stroke-linejoin="round" />
  </g>
  <defs>
    <clipPath id="clip0_1213_17976">
      <rect width="20" height="20" fill="white" />
    </clipPath>
  </defs>
</svg>