<svg xmlns="http://www.w3.org/2000/svg" width="24" height="24" viewBox="0 0 24 24" fill="none">
  <g clip-path="url(#clip0_1216_18497)">
    <path d="M6 7V19C6 20.1046 6.89543 21 8 21H16C17.1046 21 18 20.1046 18 19V7" stroke="#19323D" stroke-linecap="round"
      stroke-linejoin="round" />
    <path d="M4 7H20" stroke="#19323D" stroke-linecap="round" stroke-linejoin="round" />
    <path d="M7 7L9 3H15L17 7" stroke="#19323D" stroke-linecap="round" stroke-linejoin="round" />
  </g>
  <defs>
    <clipPath id="clip0_1216_18497">
      <rect width="24" height="24" fill="white" />
    </clipPath>
  </defs>
</svg>